R para computación de altas prestaciones
…
List of 5
 $ Fair     :List of 3
 $ Good     :List of 3
 $ Very Good:List of 3
 $ Premium  :List of 3
 $ Ideal    :List of 3

Los resultados en forma de lista facilitan el acceso rápido a cada item de la lista.

diamonds_lapply$Premium

$data
# A tibble: 2,337 × 10
   carat cut     color clarity depth table price     x     y     z
   <dbl> <ord>   <ord> <ord>   <dbl> <dbl> <int> <dbl> <dbl> <dbl>
 1  0.21 Premium E     SI1      59.8    61   326  3.89  3.84  2.31
 2  0.2  Premium E     SI2      60.2    62   345  3.79  3.75  2.27
 3  0.32 Premium E     I1       60.9    58   345  4.38  4.42  2.68
 4  0.22 Premium E     VS2      61.6    58   404  3.93  3.89  2.41
 5  0.24 Premium E     VVS1     60.7    58   553  4.01  4.03  2.44
 6  0.75 Premium E     SI1      59.9    54  2760  6     5.96  3.58
 7  0.63 Premium E     VVS1     60.9    60  2765  5.52  5.55  3.37
 8  0.71 Premium E     VS2      62.7    58  2776  5.74  5.68  3.58
 9  0.7  Premium E     VS2      61.1    60  2777  5.71  5.64  3.47
10  0.7  Premium E     SI1      60      59  2777  5.79  5.75  3.46
# … with 2,327 more rows
…
